<?xml version="1.0" encoding="UTF-8" standalone="no"?>
<svg
   viewBox="0 0 1004.1376 510.0128"
   width="1004.1376"
   height="510.01279"
   version="1.1"
   id="svg322"
   sodipodi:docname="sirius.svg"
   inkscape:version="1.2.2 (732a01da63, 2022-12-09)"
   xmlns:inkscape="http://www.inkscape.org/namespaces/inkscape"
   xmlns:sodipodi="http://sodipodi.sourceforge.net/DTD/sodipodi-0.dtd"
   xmlns="http://www.w3.org/2000/svg"
   xmlns:svg="http://www.w3.org/2000/svg">
  <sodipodi:namedview
     id="namedview324"
     pagecolor="#ffffff"
     bordercolor="#000000"
     borderopacity="0.25"
     inkscape:showpageshadow="2"
     inkscape:pageopacity="0.0"
     inkscape:pagecheckerboard="0"
     inkscape:deskcolor="#d1d1d1"
     showgrid="false"
     inkscape:zoom="0.5781636"
     inkscape:cx="653.79419"
     inkscape:cy="321.70825"
     inkscape:window-width="1600"
     inkscape:window-height="829"
     inkscape:window-x="-8"
     inkscape:window-y="-8"
     inkscape:window-maximized="1"
     inkscape:current-layer="layer1" />
  <desc
     id="desc2">demo.dxf - scale = 1.000000, origin = (0.000000, 0.000000), method = manual</desc>
  <defs
     id="defs14">
    <marker
       id="DistanceX"
       orient="auto"
       refX="0"
       refY="0"
       style="overflow:visible">
      <path
         d="M 3,-3 -3,3 M 0,-5 V 5"
         style="stroke:#000000;stroke-width:0.5"
         id="path4" />
    </marker>
    <pattern
       id="Hatch"
       patternUnits="userSpaceOnUse"
       width="8"
       height="8"
       x="0"
       y="0">
      <path
         d="M8 4 l-4,4"
         stroke="#000000"
         stroke-width="0.25"
         linecap="square"
         id="path7" />
      <path
         d="M6 2 l-4,4"
         stroke="#000000"
         stroke-width="0.25"
         linecap="square"
         id="path9" />
      <path
         d="M4 0 l-4,4"
         stroke="#000000"
         stroke-width="0.25"
         linecap="square"
         id="path11" />
    </pattern>
  </defs>
  <g
     inkscape:groupmode="layer"
     id="layer1"
     inkscape:label="1"
     transform="translate(50.253021,46.865908)">
    <g
       id="g973">
      <path
         id="path318"
         style="display:inline;fill:none;stroke:#000000"
         d="m 603.71206,363.58596 -43.73,52.12 -82.515,-69.24 43.729,-52.11 z"
         sodipodi:nodetypes="ccccc" />
      <path
         id="path593"
         style="fill:none;stroke:#000000"
         d="m 316.56706,315.85596 -38.043,56.4 -56.4,-38.05 38.043,-56.4 z"
         sodipodi:nodetypes="ccccc" />
      <path
         id="path310"
         style="display:inline;fill:none;stroke:#000000"
         d="m 681.50806,334.20596 -56.401,38.05 -38.043,-56.4 56.401,-38.05 z"
         sodipodi:nodetypes="ccccc" />
      <path
         id="path740"
         style="fill:none;stroke:#000000"
         d="m 837.43556,309.23596 -17.608,-65.711 65.713,-17.608 17.608,65.709 z"
         sodipodi:nodetypes="ccccc" />
      <path
         id="path583"
         style="fill:none;stroke:#000000"
         d="m 0.483008,291.62946 17.607803,-65.713 65.7134,17.608 -17.6079,65.713 z"
         sodipodi:nodetypes="ccccc" />
      <path
         id="aaalt"
         style="fill:none;stroke:#000000"
         d="m 382.43506,294.35596 43.73,52.11 -82.516,69.24 -43.73,-52.12 z"
         sodipodi:nodetypes="ccccc" />
      <path
         id="path585"
         style="fill:none;stroke:#000000"
         d="m 209.93816,327.69896 -65.7133,-17.608 17.6078,-65.713 65.7134,17.608 z"
         sodipodi:nodetypes="ccccc" />
      <path
         id="path670"
         style="fill:none;stroke:#000000"
         d="m 60.88766,66.19596 17.6078,-65.713 65.7134,17.608 -17.6079,65.713 z"
         sodipodi:nodetypes="ccccc" />
      <path
         id="path672"
         style="fill:none;stroke:#000000"
         d="m 134.89806,67.44096 17.6078,-65.713 65.7134,17.608 -17.6079,65.713 z"
         sodipodi:nodetypes="ccccc" />
      <path
         id="path674"
         style="fill:none;stroke:#000000"
         d="m 208.90886,68.68596 17.6078,-65.713 65.7134,17.608 -17.6079,65.713 z"
         sodipodi:nodetypes="ccccc" />
      <path
         id="path676"
         style="fill:none;stroke:#000000"
         d="m 273.62656,104.61296 17.6078,-65.713 65.7134,17.608 -17.6079,65.713 z"
         sodipodi:nodetypes="ccccc" />
      <path
         id="path678"
         style="fill:none;stroke:#000000"
         d="m 338.34406,140.53996 17.6078,-65.713 65.7134,17.608 -17.6079,65.713 z"
         sodipodi:nodetypes="ccccc" />
      <path
         id="path687"
         style="fill:none;stroke:#000000"
         d="m 42.30166,135.55996 17.6078,-65.713 65.7134,17.608 -17.6079,65.713 z"
         sodipodi:nodetypes="ccccc" />
      <path
         id="path689"
         style="fill:none;stroke:#000000"
         d="m 116.31206,136.80496 17.6078,-65.713 65.7134,17.608 -17.6079,65.713 z"
         sodipodi:nodetypes="ccccc" />
      <path
         id="path691"
         style="fill:none;stroke:#000000"
         d="m 190.32286,138.04996 17.6078,-65.713 65.7134,17.608 -17.6079,65.713 z"
         sodipodi:nodetypes="ccccc" />
      <path
         id="path693"
         style="fill:none;stroke:#000000"
         d="m 255.04056,173.97696 17.6078,-65.713 65.7134,17.608 -17.6079,65.713 z"
         sodipodi:nodetypes="ccccc" />
      <path
         id="path695"
         style="fill:none;stroke:#000000"
         d="m 319.75806,209.90396 17.6078,-65.713 65.7134,17.608 -17.6079,65.713 z"
         sodipodi:nodetypes="ccccc" />
      <path
         id="path699"
         style="fill:none;stroke:#000000"
         d="m 23.71555,204.91896 17.6078,-65.713 65.7134,17.608 -17.6079,65.713 z"
         sodipodi:nodetypes="ccccc" />
      <path
         id="path701"
         style="fill:none;stroke:#000000"
         d="m 97.72595,206.16396 17.6078,-65.713 65.7134,17.608 -17.6079,65.713 z"
         sodipodi:nodetypes="ccccc" />
      <path
         id="path703"
         style="fill:none;stroke:#000000"
         d="m 171.73675,207.40896 17.6078,-65.713 65.7134,17.608 -17.6079,65.713 z"
         sodipodi:nodetypes="ccccc" />
      <path
         id="path705"
         style="fill:none;stroke:#000000"
         d="m 236.45445,243.33596 17.6078,-65.713 65.7134,17.608 -17.6079,65.713 z"
         sodipodi:nodetypes="ccccc" />
      <path
         id="path707"
         style="fill:none;stroke:#000000"
         d="m 301.17195,279.26296 17.6078,-65.713 65.7134,17.608 -17.6079,65.713 z"
         sodipodi:nodetypes="ccccc" />
      <path
         id="path743"
         style="fill:none;stroke:#000000"
         d="m 777.03106,83.80194 -17.608,-65.71098 65.713,-17.608 17.608,65.70898 z"
         sodipodi:nodetypes="ccccc" />
      <path
         id="path745"
         style="fill:none;stroke:#000000"
         d="m 703.02006,85.04694 -17.608,-65.71098 65.713,-17.608 17.608,65.70898 z"
         sodipodi:nodetypes="ccccc" />
      <path
         id="path747"
         style="fill:none;stroke:#000000"
         d="m 629.01006,86.29194 -17.608,-65.71098 65.713,-17.608 17.608,65.70898 z"
         sodipodi:nodetypes="ccccc" />
      <path
         id="path749"
         style="fill:none;stroke:#000000"
         d="m 564.29206,122.21894 -17.608,-65.71098 65.713,-17.608 17.608,65.70898 z"
         sodipodi:nodetypes="ccccc" />
      <path
         id="path751"
         style="fill:none;stroke:#000000"
         d="m 499.57406,158.14596 -17.608,-65.711 65.713,-17.608 17.608,65.709 z"
         sodipodi:nodetypes="ccccc" />
      <path
         id="path772"
         style="fill:none;stroke:#000000"
         d="m 814.20306,222.53596 -17.608,-65.71098 65.713,-17.608 17.608,65.70898 z"
         sodipodi:nodetypes="ccccc" />
      <path
         id="path774"
         style="fill:none;stroke:#000000"
         d="m 740.19206,223.78096 -17.608,-65.71098 65.713,-17.608 17.608,65.70898 z"
         sodipodi:nodetypes="ccccc" />
      <path
         id="path776"
         style="fill:none;stroke:#000000"
         d="m 666.18206,225.02596 -17.608,-65.71098 65.713,-17.608 17.608,65.70898 z"
         sodipodi:nodetypes="ccccc" />
      <path
         id="path778"
         style="fill:none;stroke:#000000"
         d="m 601.46406,260.95296 -17.608,-65.71098 65.713,-17.608 17.608,65.70898 z"
         sodipodi:nodetypes="ccccc" />
      <path
         id="path780"
         style="fill:none;stroke:#000000"
         d="m 536.74606,296.87998 -17.608,-65.711 65.713,-17.608 17.608,65.709 z"
         sodipodi:nodetypes="ccccc" />
      <path
         id="path796"
         style="fill:none;stroke:#000000"
         d="m 795.61706,153.16596 -17.608,-65.71098 65.713,-17.608 17.608,65.70898 z"
         sodipodi:nodetypes="ccccc" />
      <path
         id="path798"
         style="fill:none;stroke:#000000"
         d="m 721.60606,154.41096 -17.608,-65.71098 65.713,-17.608 17.608,65.70898 z"
         sodipodi:nodetypes="ccccc" />
      <path
         id="path800"
         style="fill:none;stroke:#000000"
         d="m 647.59606,155.65596 -17.608,-65.71098 65.713,-17.608 17.608,65.70898 z"
         sodipodi:nodetypes="ccccc" />
      <path
         id="path802"
         style="fill:none;stroke:#000000"
         d="m 582.87806,191.58296 -17.608,-65.71098 65.713,-17.608 17.608,65.70898 z"
         sodipodi:nodetypes="ccccc" />
      <path
         id="path804"
         style="fill:none;stroke:#000000"
         d="m 518.16006,227.50998 -17.608,-65.711 65.713,-17.608 17.608,65.709 z"
         sodipodi:nodetypes="ccccc" />
      <path
         id="path809"
         style="fill:none;stroke:#000000"
         d="m 693.69406,327.70596 -17.608,-65.711 65.713,-17.608 17.608,65.709 z"
         sodipodi:nodetypes="ccccc" />
    </g>
  </g>
</svg>
